<svg xmlns="http://www.w3.org/2000/svg" xmlns:xlink="http://www.w3.org/1999/xlink" width="120" height="123" viewBox="0 0 120 123">
  <defs>
    <filter id="Ellipse_338" x="0" y="0" width="120" height="123" filterUnits="userSpaceOnUse">
      <feOffset dy="3" input="SourceAlpha"/>
      <feGaussianBlur result="blur"/>
      <feFlood flood-color="#b14a3d"/>
      <feComposite operator="in" in2="blur"/>
      <feComposite in="SourceGraphic"/>
    </filter>
  </defs>
  <g id="Group_1349" data-name="Group 1349" transform="translate(-665 -368)">
    <g id="_2_banner" data-name="#2 banner">
      <g transform="matrix(1, 0, 0, 1, 665, 368)" filter="url(#Ellipse_338)">
        <circle id="Ellipse_338-2" data-name="Ellipse 338" cx="60" cy="60" r="60" fill="#e65f4f"/>
      </g>
      <path id="Path_700" data-name="Path 700" d="M70,37.7a19.635,19.635,0,0,0-3.5-1l.1-2.2a7.093,7.093,0,0,0-11.7-5.4,7.089,7.089,0,0,0-6.3-3.8,7.488,7.488,0,0,0-5.5,2.5,7.228,7.228,0,0,0-9.3-1.4v-12a7.1,7.1,0,0,0-14.2,0V60.2c0,.3,0,7.4,5,10.4.4.3,2,1.5,2.2,2.8l.2,7.1a1.666,1.666,0,0,0,1.7,1.6h0a1.6,1.6,0,0,0,1.6-1.7l-.2-7.2v-.1c-.3-3.2-3.5-5.1-3.9-5.4-3.3-1.9-3.3-7.4-3.3-7.5V14.4a3.8,3.8,0,1,1,7.6,0V44.6a7.127,7.127,0,0,0,7.1,7.1A7.294,7.294,0,0,0,42,50.2a7.23,7.23,0,0,0,6.5,4.2,7.088,7.088,0,0,0,6.9-5.5l3.2,1.2-.1.6c-2.7,1.4-11.6,7-11.4,15.7a1.651,1.651,0,0,0,3.3-.1c-.2-7.8,10.1-12.8,10.2-12.9a1.441,1.441,0,0,0,.9-1.1l.7-2.8a1.7,1.7,0,0,0-1-2L51.9,44a4.152,4.152,0,0,1-1.1-5.2c.3-.8,1.2-.7,1.5-.7h.2c5.8.6,14.5,1.9,16.1,2.6,3.8,1.9,2.5,13,.9,17.2C68,61.8,62.6,74,62.6,74.1a1.7,1.7,0,0,0-.1.7v6.6a1.7,1.7,0,0,0,3.4,0V75.1c.9-2,5.5-12.3,6.9-16C73.9,55.4,76.8,41.1,70,37.7ZM59.3,30.8a3.778,3.778,0,0,1,3.8,3.7v1.7c-2.6-.4-5.4-.8-7.5-1v-.6A3.715,3.715,0,0,1,59.3,30.8ZM37.5,48.4a3.8,3.8,0,0,1-3.8-3.8V32.4a3.8,3.8,0,1,1,7.6,0V44.6A3.8,3.8,0,0,1,37.5,48.4ZM47.6,37.5c-1.5,3.7-.5,7.5,2.6,9.4.1.1.2.1.3.2l1.6.6A3.692,3.692,0,0,1,48.4,51a3.8,3.8,0,0,1-3.8-3.8V32.4a3.8,3.8,0,1,1,7.6,0v2.3A4.721,4.721,0,0,0,47.6,37.5Z" transform="translate(680 382.7)" fill="#fff"/>
    </g>
  </g>
</svg>
