<svg xmlns="http://www.w3.org/2000/svg" width="27.526" height="27.526" viewBox="0 0 27.526 27.526">
  <g id="noun_637706_cc" transform="translate(-5.849 -5.848)">
    <path id="Path_109" data-name="Path 109" d="M19.612,33.374A13.756,13.756,0,0,1,9.047,10.8a.617.617,0,0,1,.114-.135A13.757,13.757,0,0,1,30.255,28.328a.628.628,0,0,1-.115.139A13.739,13.739,0,0,1,19.612,33.374Zm-1.2-1.3q.594.057,1.2.057a12.488,12.488,0,0,0,9.344-4.2l-4.194-7.122ZM8.153,24.644a12.565,12.565,0,0,0,8.935,7.227l4.078-7.227Zm15.123-8.82L29.79,26.888a12.508,12.508,0,0,0,1.753-11.064ZM17.4,23.4h4.471l2.162-3.832-2.2-3.741H17.418l-2.2,3.8Zm-9.717,0h8.277L9.5,12.244A12.508,12.508,0,0,0,7.681,23.4Zm2.66-12.187,4.153,7.171,6.5-11.211a12.618,12.618,0,0,0-1.38-.076A12.488,12.488,0,0,0,10.342,11.21Zm11.853,3.368h8.876a12.567,12.567,0,0,0-8.763-7.19l-4.168,7.19h4.055Z" fill="#444"/>
  </g>
</svg>
